…
```r
library(gapminder)
library(dplyr)
library(magrittr)

gapminder %>%
  filter(year == 2007)
```

```
## # A tibble: 142 x 6
##    country     continent  year lifeExp       pop gdpPercap
##    <fct>       <fct>     <int>   <dbl>     <int>     <dbl>
##  1 Afghanistan Asia       2007    43.8  31889923      975.
##  2 Albania     Europe     2007    76.4   3600523     5937.
##  3 Algeria     Africa     2007    72.3  33333216     6223.
##  4 Angola      Africa     2007    42.7  12420476     4797.
##  5 Argentina   Americas   2007    75.3  40301927    12779.
##  6 Australia   Oceania    2007    81.2  20434176    34435.
##  7 Austria     Europe     2007    79.8   8199783    36126.
##  8 Bahrain     Asia       2007    75.6    708573    29796.
##  9 Bangladesh  Asia       2007    64.1 150448339     1391.
## 10 Belgium     Europe     2007    79.4  10392226    33693.
## # i 132 more rows
```


```r
library(gapminder)
library(dplyr)
library(magrittr)

gapminder %>%
  filter(year == 2007) %>%
  select(country)
```

```
## # A tibble: 142 x 1
##    country    
##    <fct>      
##  1 Afghanistan
##  2 Albania    
##  3 Algeria    
##  4 Angola     
##  5 Argentina  
##  6 Australia  
##  7 Austria    
##  8 Bahrain    
##  9 Bangladesh 
## 10 Belgium    
## # i 132 more rows
```


```r
library(gapminder)
library(dplyr)
library(magrittr)

gapminder %>%
  mutate(pop_in_thousands = pop / 1000)
```

```
## # A tibble: 1,704 x 7
##    country     continent  year lifeExp      pop gdpPercap pop_in_thousands
##    <fct>       <fct>     <int>   <dbl>    <int>     <dbl>            <dbl>
##  1 Afghanistan Asia       1952    28.8  8425333      779.            8425.
##  2 Afghanistan Asia       1957    30.3  9240934      821.            9241.
##  3 Afghanistan Asia       1962    32.0 10267083      853.           10267.
##  4 Afghanistan Asia       1967    34.0 11537966      836.           11538.
##  5 Afghanistan Asia       1972    36.1 13079460      740.           13079.
##  6 Afghanistan Asia       1977    38.4 14880372      786.           14880.
##  7 Afghanistan Asia       1982    39.9 12881816      978.           12882.
##  8 Afghanistan Asia       1987    40.8 13867957      852.           13868.
##  9 Afghanistan Asia       1992    41.7 16317921      649.           16318.
## 10 Afghanistan Asia       1997    41.8 22227415      635.           22227.
## # i 1,694 more rows
```


```r
library(gapminder)
library(dplyr)
library(magrittr)

gapminder %>%
  arrange(year)
```

```
## # A tibble: 1,704 x 6
##    country     continent  year lifeExp      pop gdpPercap
##    <fct>       <fct>     <int>   <dbl>    <int>     <dbl>
##  1 Afghanistan Asia       1952    28.8  8425333      779.
##  2 Albania     Europe     1952    55.2  1282697     1601.
##  3 Algeria     Africa     1952    43.1  9279525     2449.
##  4 Angola      Africa     1952    30.0  4232095     3521.
##  5 Argentina   Americas   1952    62.5 17876956     5911.
##  6 Australia   Oceania    1952    69.1  8691212    10040.
##  7 Austria     Europe     1952    66.8  6927772     6137.
##  8 Bahrain     Asia       1952    50.9   120447     9867.
##  9 Bangladesh  Asia       1952    37.5 46886859      684.
## 10 Belgium     Europe     1952    68    8730405     8343.
## # i 1,694 more rows
```
…
